<svg width="150" height="47" viewBox="0 0 150 47" fill="none" xmlns="http://www.w3.org/2000/svg">
<path d="M83.7086 23H85.1186V11.88L90.2386 23H91.1886L96.3186 11.88V22.99H97.7186V8.6H96.3486L90.7186 20.71L85.0586 8.6H83.7086V23ZM105.035 23.3C106.102 23.3 107.015 23.06 107.775 22.58C108.542 22.1 109.128 21.4333 109.535 20.58C109.948 19.72 110.155 18.7233 110.155 17.59C110.155 16.4767 109.952 15.4933 109.545 14.64C109.145 13.78 108.562 13.11 107.795 12.63C107.035 12.1433 106.115 11.9 105.035 11.9C103.982 11.9 103.072 12.14 102.305 12.62C101.545 13.0933 100.958 13.7567 100.545 14.61C100.132 15.4633 99.925 16.4567 99.925 17.59C99.925 18.7033 100.125 19.69 100.525 20.55C100.932 21.41 101.515 22.0833 102.275 22.57C103.042 23.0567 103.962 23.3 105.035 23.3ZM105.035 21.89C103.868 21.89 102.985 21.5 102.385 20.72C101.785 19.9333 101.485 18.89 101.485 17.59C101.485 16.33 101.775 15.3033 102.355 14.51C102.935 13.71 103.828 13.31 105.035 13.31C106.228 13.31 107.118 13.7 107.705 14.48C108.298 15.2533 108.595 16.29 108.595 17.59C108.595 18.8633 108.302 19.9 107.715 20.7C107.128 21.4933 106.235 21.89 105.035 21.89ZM116.551 23.3C117.338 23.3 118.028 23.14 118.621 22.82C119.214 22.4933 119.704 22.05 120.091 21.49V23H121.411V8.6H119.931V13.47C119.538 12.9767 119.051 12.5933 118.471 12.32C117.898 12.04 117.238 11.9 116.491 11.9C115.504 11.9 114.658 12.15 113.951 12.65C113.244 13.15 112.701 13.83 112.321 14.69C111.948 15.55 111.761 16.5167 111.761 17.59C111.761 18.67 111.948 19.64 112.321 20.5C112.701 21.36 113.248 22.0433 113.961 22.55C114.681 23.05 115.544 23.3 116.551 23.3ZM116.701 21.93C115.954 21.93 115.328 21.74 114.821 21.36C114.321 20.9733 113.944 20.4533 113.691 19.8C113.444 19.1467 113.321 18.41 113.321 17.59C113.321 16.7767 113.444 16.0433 113.691 15.39C113.938 14.7367 114.311 14.22 114.811 13.84C115.318 13.46 115.958 13.27 116.731 13.27C117.858 13.27 118.698 13.6733 119.251 14.48C119.811 15.28 120.091 16.3167 120.091 17.59C120.091 18.4233 119.968 19.1667 119.721 19.82C119.474 20.4733 119.101 20.99 118.601 21.37C118.101 21.7433 117.468 21.93 116.701 21.93ZM128.786 23.3C129.833 23.3 130.77 23.0433 131.596 22.53C132.43 22.0167 133.06 21.2867 133.486 20.34L132.116 19.81C131.43 21.1967 130.3 21.89 128.726 21.89C127.646 21.89 126.8 21.5533 126.186 20.88C125.58 20.2067 125.246 19.25 125.186 18.01H133.696C133.75 16.1033 133.333 14.61 132.446 13.53C131.566 12.4433 130.326 11.9 128.726 11.9C127.686 11.9 126.783 12.1333 126.016 12.6C125.256 13.0667 124.666 13.73 124.246 14.59C123.826 15.45 123.616 16.47 123.616 17.65C123.616 18.79 123.826 19.7833 124.246 20.63C124.673 21.4767 125.273 22.1333 126.046 22.6C126.826 23.0667 127.74 23.3 128.786 23.3ZM128.766 13.25C130.8 13.25 131.93 14.4267 132.156 16.78H125.216C125.33 15.64 125.69 14.7667 126.296 14.16C126.903 13.5533 127.726 13.25 128.766 13.25ZM136.116 23H137.586V8.3H136.116V23ZM144.614 23.29C145.94 23.29 146.98 23 147.734 22.42C148.494 21.8333 148.874 21.03 148.874 20.01C148.874 19.45 148.754 18.98 148.514 18.6C148.28 18.22 147.877 17.89 147.304 17.61C146.737 17.33 145.957 17.0633 144.964 16.81C144.117 16.5967 143.464 16.4 143.004 16.22C142.55 16.04 142.237 15.85 142.064 15.65C141.89 15.4433 141.804 15.1967 141.804 14.91C141.804 14.3967 142.044 13.9867 142.524 13.68C143.004 13.3733 143.627 13.2267 144.394 13.24C145.207 13.2533 145.877 13.4467 146.404 13.82C146.93 14.1867 147.247 14.6867 147.354 15.32L148.854 15.05C148.78 14.4233 148.547 13.8733 148.154 13.4C147.76 12.9267 147.24 12.56 146.594 12.3C145.954 12.0333 145.227 11.9 144.414 11.9C143.6 11.9 142.884 12.03 142.264 12.29C141.65 12.5433 141.17 12.9033 140.824 13.37C140.484 13.83 140.314 14.3667 140.314 14.98C140.314 15.48 140.427 15.9067 140.654 16.26C140.887 16.6067 141.284 16.9167 141.844 17.19C142.404 17.4567 143.17 17.7233 144.144 17.99C145.057 18.2367 145.74 18.45 146.194 18.63C146.654 18.81 146.96 19.0067 147.114 19.22C147.267 19.4267 147.344 19.6967 147.344 20.03C147.344 20.6167 147.107 21.0833 146.634 21.43C146.16 21.7767 145.514 21.95 144.694 21.95C143.854 21.95 143.147 21.77 142.574 21.41C142 21.0433 141.637 20.5533 141.484 19.94L139.984 20.19C140.17 21.1633 140.67 21.9233 141.484 22.47C142.304 23.0167 143.347 23.29 144.614 23.29Z" fill="#141311"/>
<path d="M18.4101 13.325C19.4601 13.325 20.3351 13.29 21.0351 13.22V13.92C20.5684 14.0367 20.1134 14.34 19.6701 14.83C19.2267 15.2967 18.7484 16.0317 18.2351 17.035L12.7401 27.92V34.29C12.7401 35.1767 12.8101 35.8183 12.9501 36.215C13.0901 36.6117 13.3467 36.88 13.7201 37.02C14.1167 37.16 14.7351 37.2533 15.5751 37.3V38C14.5017 37.93 13.0201 37.895 11.1301 37.895C9.12341 37.895 7.63008 37.93 6.65008 38V37.3C7.49008 37.2533 8.09675 37.16 8.47008 37.02C8.86675 36.88 9.13508 36.6117 9.27508 36.215C9.41508 35.8183 9.48508 35.1767 9.48508 34.29V29.04L2.38008 15.915C1.96008 15.145 1.58674 14.6317 1.26008 14.375C0.956745 14.095 0.653411 13.955 0.350078 13.955V13.22C1.26008 13.29 2.28674 13.325 3.43008 13.325C5.69341 13.325 7.32675 13.29 8.33008 13.22V13.955C6.69674 13.955 5.88008 14.3983 5.88008 15.285C5.88008 15.635 5.99674 16.0433 6.23008 16.51L12.0401 27.675L16.5201 18.785C17.1501 17.5483 17.4651 16.545 17.4651 15.775C17.4651 15.1217 17.2084 14.655 16.6951 14.375C16.1817 14.095 15.4117 13.9433 14.3851 13.92V13.22C15.7151 13.29 17.0567 13.325 18.4101 13.325ZM32.8492 19.485C34.4826 19.485 35.7192 19.9283 36.5592 20.815C37.0026 21.2817 37.3176 21.865 37.5042 22.565C37.6909 23.265 37.7842 24.21 37.7842 25.4V34.745C37.7842 35.7017 37.9826 36.3667 38.3792 36.74C38.7759 37.09 39.4642 37.265 40.4442 37.265V38C38.2976 37.9067 36.8976 37.86 36.2442 37.86C35.5909 37.86 34.2842 37.9067 32.3242 38V37.265C33.1876 37.265 33.7826 37.09 34.1092 36.74C34.4592 36.3667 34.6342 35.7017 34.6342 34.745V24.63C34.6342 23.3233 34.4476 22.3317 34.0742 21.655C33.7009 20.955 32.9426 20.605 31.7992 20.605C30.8426 20.605 29.9909 20.885 29.2442 21.445C28.4976 22.005 27.9142 22.775 27.4942 23.755C27.0976 24.7117 26.8992 25.785 26.8992 26.975V34.745C26.8992 35.7017 27.0626 36.3667 27.3892 36.74C27.7392 37.09 28.3459 37.265 29.2092 37.265V38C27.2492 37.9067 25.9426 37.86 25.2892 37.86C24.6359 37.86 23.2359 37.9067 21.0892 38V37.265C22.0692 37.265 22.7576 37.09 23.1542 36.74C23.5509 36.3667 23.7492 35.7017 23.7492 34.745V23.79C23.7492 22.7167 23.5509 21.935 23.1542 21.445C22.7576 20.955 22.0692 20.71 21.0892 20.71V19.975C21.8359 20.045 22.5592 20.08 23.2592 20.08C24.7292 20.08 25.9426 19.9167 26.8992 19.59V23.72C27.4826 22.2267 28.2876 21.1533 29.3142 20.5C30.3642 19.8233 31.5426 19.485 32.8492 19.485ZM57.898 34.185C57.898 35.2583 58.0963 36.04 58.493 36.53C58.8897 37.02 59.578 37.265 60.558 37.265V38C59.8347 37.93 59.1113 37.895 58.388 37.895C56.918 37.895 55.7047 38.0583 54.748 38.385V35.27C54.328 36.32 53.698 37.125 52.858 37.685C52.018 38.2217 50.9913 38.49 49.778 38.49C47.538 38.49 45.7763 37.685 44.493 36.075C43.233 34.465 42.6147 32.1083 42.638 29.005C42.638 26.975 42.988 25.2483 43.688 23.825C44.4113 22.3783 45.368 21.2933 46.558 20.57C47.7713 19.8467 49.1013 19.485 50.548 19.485C51.4347 19.485 52.2397 19.66 52.963 20.01C53.7097 20.3367 54.3047 20.85 54.748 21.55V14.76C54.748 13.6867 54.5497 12.905 54.153 12.415C53.7563 11.925 53.068 11.68 52.088 11.68V10.945C52.8347 11.015 53.558 11.05 54.258 11.05C55.728 11.05 56.9413 10.8867 57.898 10.56V34.185ZM50.793 37.44C51.703 37.44 52.5197 37.09 53.243 36.39C53.9663 35.69 54.468 34.6983 54.748 33.415V22.985C54.118 21.1883 52.8113 20.29 50.828 20.29C49.3813 20.29 48.2147 21.0367 47.328 22.53C46.4413 24 46.0097 26.1583 46.033 29.005C46.0097 31.805 46.4063 33.9167 47.223 35.34C48.0397 36.74 49.2297 37.44 50.793 37.44ZM66.9999 38.245C65.5299 38.245 64.4333 37.8833 63.7099 37.16C63.0099 36.4133 62.6599 35.3867 62.6599 34.08C62.6599 33.03 62.9399 32.1667 63.4999 31.49C64.0833 30.8133 64.7599 30.2767 65.5299 29.88C66.3233 29.4833 67.3616 29.0633 68.6449 28.62C69.9516 28.1767 70.9199 27.7683 71.5499 27.395C72.1799 27.0217 72.4949 26.52 72.4949 25.89V23.72C72.4949 22.3667 72.2033 21.445 71.6199 20.955C71.0599 20.4417 70.2666 20.185 69.2399 20.185C67.6066 20.185 66.4516 20.605 65.7749 21.445C66.2416 21.5617 66.6266 21.8067 66.9299 22.18C67.2566 22.5533 67.4199 23.02 67.4199 23.58C67.4199 24.1633 67.2333 24.63 66.8599 24.98C66.4866 25.3067 66.0083 25.47 65.4249 25.47C64.7716 25.47 64.2816 25.2717 63.9549 24.875C63.6283 24.455 63.4649 23.9533 63.4649 23.37C63.4649 22.81 63.5933 22.3433 63.8499 21.97C64.1299 21.5967 64.5383 21.2233 65.0749 20.85C65.6349 20.4533 66.3466 20.1267 67.2099 19.87C68.0733 19.6133 69.0183 19.485 70.0449 19.485C71.8649 19.485 73.2416 19.9167 74.1749 20.78C74.7583 21.3167 75.1433 21.97 75.3299 22.74C75.5399 23.4867 75.6449 24.4783 75.6449 25.715V35.445C75.6449 36.0283 75.7266 36.4483 75.8899 36.705C76.0533 36.9617 76.3333 37.09 76.7299 37.09C77.0099 37.09 77.2666 37.0317 77.4999 36.915C77.7566 36.775 78.0249 36.5883 78.3049 36.355L78.6899 36.95C78.0833 37.4167 77.5583 37.755 77.1149 37.965C76.6949 38.1517 76.1583 38.245 75.5049 38.245C74.3849 38.245 73.6033 37.965 73.1599 37.405C72.7166 36.845 72.4949 36.0867 72.4949 35.13C71.7949 36.2967 70.9899 37.1133 70.0799 37.58C69.1699 38.0233 68.1433 38.245 66.9999 38.245ZM68.5399 36.845C70.0799 36.845 71.3983 35.9583 72.4949 34.185V27.325C72.2849 27.6517 71.9933 27.92 71.6199 28.13C71.2466 28.34 70.6749 28.62 69.9049 28.97C69.0183 29.3433 68.2949 29.705 67.7349 30.055C67.1983 30.3817 66.7316 30.8367 66.3349 31.42C65.9383 32.0033 65.7399 32.75 65.7399 33.66C65.7399 34.71 65.9966 35.5033 66.5099 36.04C67.0233 36.5767 67.6999 36.845 68.5399 36.845ZM83.1366 34.01C83.7432 34.01 84.2682 34.2317 84.7116 34.675C85.1549 35.1183 85.3766 35.6433 85.3766 36.25C85.3766 36.8567 85.1549 37.3817 84.7116 37.825C84.2682 38.2683 83.7432 38.49 83.1366 38.49C82.5299 38.49 82.0049 38.2683 81.5616 37.825C81.1182 37.3817 80.8966 36.8567 80.8966 36.25C80.8966 35.6433 81.1182 35.1183 81.5616 34.675C82.0049 34.2317 82.5299 34.01 83.1366 34.01Z" fill="#141311"/>
</svg>
